Case Study 1
…
When we compare Figure 8 and Figure 9 we can see
that temperature has huge affect over number of rides in a month.

Creating a table that shows stats about each
start_hour

all_in_one %>%
    group_by(start_hour) %>% 
    summarise(count = length(ride_id),
          'Percentage' = format(round((length(ride_id) / nrow(all_in_one)) * 100, 2), nsmall = 2),
          'members_percentage' = (sum(member_casual == "member") / length(ride_id)) * 100,
          'casual_percentage' = (sum(member_casual == "casual") / length(ride_id)) * 100,
          'percentage_differance' = members_percentage - casual_percentage)

## # A tibble: 24 × 6
##    start_hour  count Percentage members_percentage casual_percentage
##         <int>  <int> <chr>                   <dbl>             <dbl>
##  1          0  71637 1.26                     48.9              51.1
##  2          1  44723 0.79                     46.9              53.1
##  3          2  26336 0.46                     45.7              54.3
##  4          3  15794 0.28                     50.0              50.0
##  5          4  14608 0.26                     60.0              40.0
##  6          5  45332 0.80                     75.1              24.9
##  7          6 134389 2.37                     77.9              22.1
##  8          7 245632 4.33                     78.7              21.3
##  9          8 312428 5.51                     77.6              22.4
## 10          9 232824 4.10                     70.2              29.8
## # ℹ 14 more rows
## # ℹ 1 more variable: percentage_differance <dbl>
…
